<svg width="200" height="200" viewBox="0 0 200 200" fill="none" xmlns="http://www.w3.org/2000/svg">
<g clip-path="url(#clip0_275_6024)">
<path d="M76.6673 120C58.2575 120 43.334 134.924 43.334 153.333C43.334 171.743 58.2575 186.667 76.6673 186.667C95.0772 186.667 110.001 171.743 110.001 153.333C109.981 134.932 95.069 120.02 76.6673 120ZM76.6673 180C61.9391 180 50.0007 168.062 50.0007 153.333C50.0007 138.605 61.9391 126.667 76.6673 126.667C91.3955 126.667 103.334 138.605 103.334 153.333C103.318 168.053 91.3874 179.984 76.6673 180Z" fill="#171AA0"/>
<path d="M76.6673 143.333C80.738 143.333 83.334 145.306 83.334 146.667H90.0007C90.0007 141.93 85.8047 138.094 80.0007 137V133.333H73.334V137C67.5299 138.086 63.334 141.924 63.334 146.667C63.334 152.277 69.1901 156.667 76.6673 156.667C80.738 156.667 83.334 158.639 83.334 160C83.334 161.361 80.738 163.333 76.6673 163.333C72.5967 163.333 70.0007 161.361 70.0007 160H63.334C63.334 164.736 67.5299 168.573 73.334 169.666V173.333H80.0007V169.666C85.8047 168.581 90.0007 164.743 90.0007 160C90.0007 154.39 84.1445 150 76.6673 150C72.5967 150 70.0007 148.027 70.0007 146.667C70.0007 145.306 72.5967 143.333 76.6673 143.333Z" fill="#171AA0"/>
<path d="M170 193.333H30V113.333H83.3333C88.8558 113.333 93.3333 108.856 93.3333 103.333V20H130V60H170V106.667H176.667V55.2865L134.714 13.3333H93.3333V10C93.3333 4.47754 88.8558 0 83.3333 0H10C4.47754 0 0 4.47754 0 10V103.333C0 108.856 4.47754 113.333 10 113.333H23.3333V200H176.667V153.333H170V193.333ZM136.667 24.7135L165.286 53.3333H136.667V24.7135ZM6.66667 103.333V10C6.66667 8.15918 8.15918 6.66667 10 6.66667H83.3333C85.1742 6.66667 86.6667 8.15918 86.6667 10V103.333C86.6667 105.174 85.1742 106.667 83.3333 106.667H10C8.15918 106.667 6.66667 105.174 6.66667 103.333Z" fill="#171AA0"/>
<path d="M106.666 83.3333H113.333V90H106.666V83.3333Z" fill="#171AA0"/>
<path d="M120 83.3333H160V90H120V83.3333Z" fill="#171AA0"/>
<path d="M106.666 70H113.333V76.6667H106.666V70Z" fill="#171AA0"/>
<path d="M120 70H160V76.6667H120V70Z" fill="#171AA0"/>
<path d="M106.666 96.6667H113.333V103.333H106.666V96.6667Z" fill="#171AA0"/>
<path d="M120 96.6667H160V103.333H120V96.6667Z" fill="#171AA0"/>
<path d="M106.666 110H113.333V116.667H106.666V110Z" fill="#171AA0"/>
<path d="M120 110H160V116.667H120V110Z" fill="#171AA0"/>
<path d="M83.3333 10H10V33.3333H83.3333V10ZM76.6667 26.6667H16.6667V16.6667H76.6667V26.6667Z" fill="#171AA0"/>
<path d="M26.6673 36.6667H20.0007C16.319 36.6667 13.334 39.6517 13.334 43.3334V50C13.334 53.6817 16.319 56.6667 20.0007 56.6667H26.6673C30.349 56.6667 33.334 53.6817 33.334 50V43.3334C33.334 39.6517 30.349 36.6667 26.6673 36.6667ZM20.0007 50V43.3334H26.6673V50H20.0007Z" fill="#171AA0"/>
<path d="M49.9994 36.6667H43.3327C39.651 36.6667 36.666 39.6517 36.666 43.3334V50C36.666 53.6817 39.651 56.6667 43.3327 56.6667H49.9994C53.681 56.6667 56.666 53.6817 56.666 50V43.3334C56.666 39.6517 53.681 36.6667 49.9994 36.6667ZM43.3327 50V43.3334H49.9994V50H43.3327Z" fill="#171AA0"/>
<path d="M73.3333 36.6667H66.6667C62.985 36.6667 60 39.6517 60 43.3334V50C60 53.6817 62.985 56.6667 66.6667 56.6667H73.3333C77.015 56.6667 80 53.6817 80 50V43.3334C80 39.6517 77.015 36.6667 73.3333 36.6667ZM66.6667 50V43.3334H73.3333V50H66.6667Z" fill="#171AA0"/>
<path d="M26.6673 60H20.0007C16.319 60 13.334 62.985 13.334 66.6667V73.3333C13.334 77.015 16.319 80 20.0007 80H26.6673C30.349 80 33.334 77.015 33.334 73.3333V66.6667C33.334 62.985 30.349 60 26.6673 60ZM20.0007 73.3333V66.6667H26.6673V73.3333H20.0007Z" fill="#171AA0"/>
<path d="M49.9994 60H43.3327C39.651 60 36.666 62.985 36.666 66.6667V73.3333C36.666 77.015 39.651 80 43.3327 80H49.9994C53.681 80 56.666 77.015 56.666 73.3333V66.6667C56.666 62.985 53.681 60 49.9994 60ZM43.3327 73.3333V66.6667H49.9994V73.3333H43.3327Z" fill="#171AA0"/>
<path d="M73.3333 60H66.6667C62.985 60 60 62.985 60 66.6667V73.3333C60 77.015 62.985 80 66.6667 80H73.3333C77.015 80 80 77.015 80 73.3333V66.6667C80 62.985 77.015 60 73.3333 60ZM66.6667 73.3333V66.6667H73.3333V73.3333H66.6667Z" fill="#171AA0"/>
<path d="M26.6673 83.3333H20.0007C16.319 83.3333 13.334 86.3183 13.334 90V96.6666C13.334 100.348 16.319 103.333 20.0007 103.333H26.6673C30.349 103.333 33.334 100.348 33.334 96.6666V90C33.334 86.3183 30.349 83.3333 26.6673 83.3333ZM20.0007 96.6666V90H26.6673V96.6666H20.0007Z" fill="#171AA0"/>
<path d="M49.9994 83.3333H43.3327C39.651 83.3333 36.666 86.3183 36.666 90V96.6666C36.666 100.348 39.651 103.333 43.3327 103.333H49.9994C53.681 103.333 56.666 100.348 56.666 96.6666V90C56.666 86.3183 53.681 83.3333 49.9994 83.3333ZM43.3327 96.6666V90H49.9994V96.6666H43.3327Z" fill="#171AA0"/>
<path d="M73.3333 83.3333H66.6667C62.985 83.3333 60 86.3183 60 90V96.6666C60 100.348 62.985 103.333 66.6667 103.333H73.3333C77.015 103.333 80 100.348 80 96.6666V90C80 86.3183 77.015 83.3333 73.3333 83.3333ZM66.6667 96.6666V90H73.3333V96.6666H66.6667Z" fill="#171AA0"/>
<path d="M196.972 106.361C193.015 102.583 186.79 102.583 182.833 106.361L125.69 163.503C125.413 163.783 125.187 164.108 125.022 164.466L116.975 181.94C116.394 183.206 116.663 184.702 117.649 185.687C118.634 186.673 120.13 186.942 121.396 186.361L138.87 178.314C139.228 178.149 139.554 177.925 139.833 177.646L196.972 120.503C200.878 116.598 200.878 110.265 196.972 106.361ZM135.537 172.506L126.803 176.53L130.826 167.796L173.432 125.187L178.146 129.901L135.537 172.506ZM182.869 125.173L178.155 120.461L180.489 118.127L185.203 122.84L182.869 125.173ZM192.27 115.773L189.913 118.13L185.2 113.416L187.56 111.06C188.876 109.8 190.952 109.8 192.27 111.06C193.57 112.362 193.57 114.471 192.27 115.773Z" fill="#171AA0"/>
</g>
<defs>
<clipPath id="clip0_275_6024">
<rect width="200" height="200" fill="white"/>
</clipPath>
</defs>
</svg>
