<svg width="70" height="70" viewBox="0 0 70 70" fill="none" xmlns="http://www.w3.org/2000/svg">
<g clip-path="url(#clip0_172_7534)">
<path d="M38.4216 24.0293C31.4475 16.3577 19.7078 15.8929 12.1526 22.7506C11.8041 23.0997 11.3393 23.4481 10.9902 23.913L10.5254 24.7268L11.1066 25.4243L11.2229 25.5401C18.0806 33.0953 29.8204 33.5607 37.3756 26.7025C37.724 26.354 38.1889 26.0055 38.5379 25.5401L39.1191 24.7268L38.4216 24.0293ZM22.3815 24.7268C22.3815 23.4481 23.4275 22.4021 24.7062 22.4021C25.9843 22.4021 27.0308 23.4481 27.0308 24.7268C27.0308 26.0055 25.9843 27.0515 24.7062 27.0515C23.4275 27.0515 22.3815 26.0055 22.3815 24.7268ZM23.1948 20.3096C20.7538 21.1234 19.4756 23.6808 20.1726 26.1213C20.638 27.5163 21.684 28.6787 23.1948 29.1435C19.5914 28.795 16.1044 27.2836 13.4312 24.7268C16.2207 22.1694 19.5914 20.6586 23.1948 20.3096ZM26.217 29.1435C28.658 28.3302 29.9367 25.7728 29.2392 23.3318C28.7744 21.9373 27.7278 20.775 26.217 20.3096C29.8204 20.6586 33.3074 22.1694 35.9805 24.7268C33.191 27.2836 29.8204 28.795 26.217 29.1435Z" fill="#171AA0"/>
<path d="M24.707 4.96729C13.7806 4.96729 4.94727 13.8012 4.94727 24.7271C4.94727 35.653 13.7806 44.4869 24.707 44.4869C35.6329 44.4869 44.4668 35.653 44.4668 24.7271C44.4668 13.8012 35.6329 4.96729 24.707 4.96729ZM24.707 42.1622C15.0593 42.1622 7.27195 34.3743 7.27195 24.7271C7.27195 15.0793 15.0593 7.29197 24.707 7.29197C34.3542 7.29197 42.1422 15.0793 42.1422 24.7271C42.1422 34.3743 34.3542 42.1622 24.707 42.1622Z" fill="#171AA0"/>
<path d="M64.2263 50.2983V11.9411C64.2263 8.6862 61.669 6.12939 58.4146 6.12939H45.6289V8.45407H58.4146C60.3903 8.45407 61.9017 9.96489 61.9017 11.9411V50.2983H64.2263Z" fill="#171AA0"/>
<path d="M6.10938 46.8115V58.4349C6.10938 61.6893 8.66618 64.2466 11.9211 64.2466H52.603V61.9219H11.9211C9.94487 61.9219 8.43406 60.4106 8.43406 58.4349V46.8115H6.10938Z" fill="#171AA0"/>
<path d="M49.1152 11.9414H59.5763V14.2661H49.1152V11.9414Z" fill="#171AA0"/>
<path d="M51.4414 17.7529H59.5778V20.0776H51.4414V17.7529Z" fill="#171AA0"/>
<path d="M51.4414 23.5645H59.5778V25.8891H51.4414V23.5645Z" fill="#171AA0"/>
<path d="M51.4414 29.3765H59.5778V31.7011H51.4414V29.3765Z" fill="#171AA0"/>
<path d="M51.4414 35.188H59.5778V37.5127H51.4414V35.188Z" fill="#171AA0"/>
<path d="M52.6035 41H59.5776V43.3247H52.6035V41Z" fill="#171AA0"/>
<path d="M10.7578 51.4609H42.141V53.7856H10.7578V51.4609Z" fill="#171AA0"/>
<path d="M10.7578 56.1104H46.7904V58.435H10.7578V56.1104Z" fill="#171AA0"/>
<path d="M16.5703 34.0259H32.8431V36.3506H16.5703V34.0259Z" fill="#171AA0"/>
<path d="M16.5703 13.1035H32.8431V15.4282H16.5703V13.1035Z" fill="#171AA0"/>
<path d="M56.4384 49.0198C55.7409 48.3223 54.9276 47.9738 53.9973 47.9738H53.1841L44.815 38.5588C52.4865 27.4002 49.8128 12.1734 38.6548 4.38607C27.4962 -3.40183 12.1531 -0.49598 4.48154 10.5463C-3.18945 21.5885 -0.516292 36.9316 10.6423 44.7189C19.4762 50.8797 31.3317 50.5306 39.8171 43.7893L47.9535 52.9717V53.9019C47.9535 54.8315 48.302 55.7612 48.9995 56.3423L61.0877 68.4311C63.1797 70.5231 66.4346 70.5231 68.5266 68.4311C70.6192 66.3386 70.6192 63.0842 68.5266 60.9917L56.4384 49.0198ZM2.62225 24.727C2.62225 12.5225 12.5021 2.64256 24.7067 2.64256C36.9113 2.64256 46.7912 12.5225 46.7912 24.727C46.7912 36.9316 36.9113 46.8115 24.7067 46.8115C12.5021 46.8115 2.62225 36.9316 2.62225 24.727ZM41.5606 42.3943C42.1418 41.8131 42.8388 41.1161 43.3042 40.535L50.9752 49.1362L49.1159 50.8797L41.5606 42.3943ZM64.8074 67.7336C63.9936 67.7336 63.2961 67.3846 62.7149 66.9197L50.6267 54.8315C50.394 54.5988 50.2782 54.3667 50.2782 54.0177V53.088L53.0677 50.2985H53.9973C54.3464 50.2985 54.5785 50.4149 54.8112 50.647L66.8994 62.7352C68.0618 63.8975 68.0618 65.7574 66.8994 66.9197C66.3183 67.3846 65.5044 67.7336 64.8074 67.7336Z" fill="#171AA0"/>
</g>
<defs>
<clipPath id="clip0_172_7534">
<rect width="70" height="70" fill="white"/>
</clipPath>
</defs>
</svg>
