<svg width="200" height="200" viewBox="0 0 200 200" fill="none" xmlns="http://www.w3.org/2000/svg">
<g clip-path="url(#clip0_277_6112)">
<path d="M97.6562 70.3125C99.8123 70.3125 101.562 68.5623 101.562 66.4062C101.562 64.2502 99.8123 62.5 97.6562 62.5C95.5002 62.5 93.75 64.2502 93.75 66.4062C93.75 68.5623 95.5002 70.3125 97.6562 70.3125Z" fill="#171AA0"/>
<path d="M97.6562 85.9375C99.8123 85.9375 101.562 84.1873 101.562 82.0312C101.562 79.8752 99.8123 78.125 97.6562 78.125C95.5002 78.125 93.75 79.8752 93.75 82.0312C93.75 84.1873 95.5002 85.9375 97.6562 85.9375Z" fill="#171AA0"/>
<path d="M198.856 40.2069L159.793 1.14441C159.102 0.45166 158.098 0 157.031 0H58.5938C52.1317 0 46.875 5.25665 46.875 11.7188V23.6176C45.578 23.5001 44.2734 23.4375 42.9688 23.4375C19.2764 23.4375 0 42.7139 0 66.4062C0 90.0986 19.2764 109.375 42.9688 109.375C44.2734 109.375 45.578 109.312 46.875 109.195V188.281C46.875 194.743 52.1317 200 58.5938 200H188.281C194.743 200 200 194.743 200 188.281V42.9688C200 41.9022 199.556 40.9073 198.856 40.2069ZM160.938 13.3362L186.664 39.0625H160.938V13.3362ZM46.875 31.4682C63.3698 33.2886 76.0956 46.4401 77.8992 62.5H46.875V31.4682ZM7.8125 66.4062C7.8125 48.3414 21.5088 33.4183 39.0625 31.4682V66.4062C39.0625 68.5638 40.8112 70.3079 42.9688 70.3079H77.8992C75.9369 87.7823 61.1526 101.562 42.9688 101.562C23.584 101.562 7.8125 85.791 7.8125 66.4062ZM188.281 192.188H58.5938C56.4392 192.188 54.6875 190.436 54.6875 188.281V107.748C72.9736 102.573 85.9375 85.6812 85.9375 66.4062C85.9375 47.1313 72.9736 30.2399 54.6875 25.0641V11.7188C54.6875 9.56421 56.4392 7.8125 58.5938 7.8125H153.125V42.9688C153.125 45.1263 154.874 46.875 157.031 46.875H192.188V188.281C192.188 190.436 190.436 192.188 188.281 192.188Z" fill="#171AA0"/>
<path d="M100 31.25H141.406C143.564 31.25 145.312 29.5013 145.312 27.3438C145.312 25.1862 143.564 23.4375 141.406 23.4375H100C97.8424 23.4375 96.0938 25.1862 96.0938 27.3438C96.0938 29.5013 97.8424 31.25 100 31.25Z" fill="#171AA0"/>
<path d="M100 46.875H141.406C143.564 46.875 145.312 45.1263 145.312 42.9688C145.312 40.8112 143.564 39.0625 141.406 39.0625H100C97.8424 39.0625 96.0938 40.8112 96.0938 42.9688C96.0938 45.1263 97.8424 46.875 100 46.875Z" fill="#171AA0"/>
<path d="M42.9688 85.9375C32.1991 85.9375 23.4375 77.1759 23.4375 66.4062C23.4375 64.2487 21.6888 62.5 19.5312 62.5C17.3737 62.5 15.625 64.2487 15.625 66.4062C15.625 81.4835 27.8915 93.75 42.9688 93.75C45.1263 93.75 46.875 92.0013 46.875 89.8438C46.875 87.6862 45.1263 85.9375 42.9688 85.9375Z" fill="#171AA0"/>
<path d="M171.484 103.906C165.022 103.906 159.766 109.163 159.766 115.625C159.766 118.047 160.504 120.3 161.768 122.169L134.642 151.283C133.568 150.958 132.43 150.781 131.25 150.781C129.602 150.781 128.008 151.123 126.543 151.765L114.325 136.62C115.173 134.979 115.625 133.15 115.625 131.25C115.625 124.788 110.368 119.531 103.906 119.531C97.4442 119.531 92.1875 124.788 92.1875 131.25C92.1875 133.075 92.6056 134.834 93.3899 136.424L79.1458 151.863C77.6215 151.155 75.9491 150.781 74.2188 150.781C67.7567 150.781 62.5 156.038 62.5 162.5C62.5 168.962 67.7567 174.219 74.2188 174.219C80.6808 174.219 85.9375 168.962 85.9375 162.5C85.9375 160.675 85.5209 158.916 84.7351 157.326L98.9792 141.887C100.504 142.595 102.176 142.969 103.906 142.969C105.554 142.969 107.149 142.627 108.614 141.985L120.831 157.13C119.983 158.771 119.531 160.6 119.531 162.5C119.531 168.962 124.788 174.219 131.25 174.219C137.712 174.219 142.969 168.962 142.969 162.5C142.969 160.078 142.23 157.825 140.967 155.956L168.092 126.842C169.167 127.167 170.305 127.344 171.484 127.344C177.946 127.344 183.203 122.087 183.203 115.625C183.203 109.163 177.946 103.906 171.484 103.906ZM74.2188 166.406C72.0642 166.406 70.3125 164.655 70.3125 162.5C70.3125 160.345 72.0642 158.594 74.2188 158.594C76.3748 158.594 78.125 160.342 78.125 162.5C78.125 164.655 76.3733 166.406 74.2188 166.406ZM100 131.25C100 129.095 101.752 127.344 103.906 127.344C106.061 127.344 107.812 129.095 107.812 131.25C107.812 133.406 106.064 135.156 103.906 135.156C101.749 135.156 100 133.406 100 131.25ZM131.25 166.406C129.095 166.406 127.344 164.655 127.344 162.5C127.344 160.344 129.092 158.594 131.25 158.594C133.405 158.594 135.156 160.345 135.156 162.5C135.156 164.655 133.405 166.406 131.25 166.406ZM171.484 119.531C169.33 119.531 167.578 117.78 167.578 115.625C167.578 113.47 169.33 111.719 171.484 111.719C173.639 111.719 175.391 113.47 175.391 115.625C175.391 117.78 173.639 119.531 171.484 119.531Z" fill="#171AA0"/>
<path d="M109.375 66.4062C109.375 68.5638 111.124 70.3125 113.281 70.3125H172.656C174.814 70.3125 176.562 68.5638 176.562 66.4062C176.562 64.2487 174.814 62.5 172.656 62.5H113.281C111.124 62.5 109.375 64.2487 109.375 66.4062Z" fill="#171AA0"/>
<path d="M172.656 78.125H113.281C111.124 78.125 109.375 79.8737 109.375 82.0312C109.375 84.1888 111.124 85.9375 113.281 85.9375H172.656C174.814 85.9375 176.562 84.1888 176.562 82.0312C176.562 79.8737 174.814 78.125 172.656 78.125Z" fill="#171AA0"/>
</g>
<defs>
<clipPath id="clip0_277_6112">
<rect width="200" height="200" fill="white"/>
</clipPath>
</defs>
</svg>
