<svg width="200" height="200" viewBox="0 0 200 200" fill="none" xmlns="http://www.w3.org/2000/svg">
<g clip-path="url(#clip0_277_6181)">
<path d="M97.4329 76.69L127.433 43.3566C131.128 39.2513 130.795 32.9281 126.69 29.2333C122.584 25.5385 116.261 25.8713 112.566 29.9766L89.6162 55.4766L87.0729 52.93C83.1135 49.1564 76.8889 49.1564 72.9295 52.93C71.0538 54.8054 70 57.3492 70 60.0016C70 62.6541 71.0538 65.1979 72.9295 67.0733L82.9295 77.0733C84.8696 79.0127 87.5213 80.07 90.2636 79.9975C93.0058 79.925 95.5979 78.7292 97.4329 76.69ZM87.6429 72.3566L77.6429 62.3566C76.7763 61.5197 76.4288 60.2804 76.7339 59.1149C77.0389 57.9495 77.9491 57.0394 79.1145 56.7343C80.2799 56.4293 81.5193 56.7768 82.3562 57.6433L87.3895 62.6733C88.036 63.3195 88.9196 63.6719 89.8334 63.648C90.7472 63.624 91.6111 63.2259 92.2229 62.5466L117.52 34.44C118.316 33.5539 119.524 33.1599 120.689 33.4064C121.855 33.6528 122.8 34.5023 123.169 35.6347C123.539 36.7672 123.276 38.0106 122.48 38.8966L92.4795 72.23C91.8677 72.9103 91.0031 73.3091 90.0884 73.3331C89.1738 73.357 88.2895 73.004 87.6429 72.3566Z" fill="#171AA0"/>
<path d="M190 76.6667H162.173C158.138 76.6662 154.604 79.3735 153.553 83.27H144.07C159.84 60.1479 155.053 28.7691 133.108 11.3997C111.162 -5.96974 79.5228 -3.42056 60.641 17.2384C41.7592 37.8973 42.0586 69.6376 61.3267 89.9367L46.4467 89.9167C45.3898 86.0274 41.857 83.3293 37.8267 83.3334H10C4.47715 83.3334 0 87.8105 0 93.3334V153.333C0 158.856 4.47715 163.333 10 163.333H26.5267C30.5783 163.328 34.1155 160.588 35.1333 156.667H40.88L37.1167 166.667C36.0229 169.557 36.125 172.763 37.4003 175.578C38.6757 178.393 41.0193 180.584 43.9133 181.667C46.8517 182.754 50.1034 182.617 52.94 181.287C52.9567 181.327 52.9633 181.37 52.98 181.41C54.2683 184.246 56.6374 186.449 59.5595 187.529C62.4815 188.608 65.7139 188.474 68.5367 187.157C69.7943 190.031 72.1602 192.276 75.0972 193.381C78.0341 194.486 81.2928 194.357 84.1333 193.023C84.15 193.06 84.1533 193.1 84.17 193.14C86.112 197.443 90.4553 200.151 95.1734 200.001C99.8915 199.852 104.054 196.874 105.72 192.457L105.92 191.927L117.253 197.463C120.04 198.809 123.249 198.986 126.167 197.955C129.085 196.925 131.47 194.771 132.793 191.973C134.123 189.138 134.268 185.889 133.197 182.947L133.313 182.907C136.247 181.866 138.644 179.695 139.969 176.878C141.294 174.061 141.439 170.831 140.37 167.907L140.477 167.867C143.411 166.826 145.808 164.656 147.134 161.839C148.46 159.022 148.605 155.791 147.537 152.867C149.226 152.268 150.753 151.287 152 150H164.867C165.886 153.921 169.422 156.66 173.473 156.667H190C195.523 156.667 200 152.19 200 146.667V86.6667C200 81.1438 195.523 76.6667 190 76.6667ZM53.3333 53.3333C53.3037 32.702 66.825 14.4997 86.5856 8.56926C106.346 2.63879 127.656 10.3878 138.992 27.626C150.327 44.8641 148.998 67.5001 135.723 83.2934L104.5 83.3334C100.693 83.336 97.063 84.9416 94.5 87.7567L92.4667 90L71.17 89.97C59.8768 81.1748 53.291 67.6473 53.3333 53.3333ZM26.5267 156.667H10C8.15905 156.667 6.66667 155.174 6.66667 153.333V93.3334C6.66667 91.4924 8.15905 90 10 90H37.8267C38.4974 90.0001 39.1336 90.2978 39.5635 90.8127C39.9935 91.3276 40.1729 92.0066 40.0533 92.6667L28.7567 154.807C28.5614 155.885 27.6222 156.668 26.5267 156.667ZM46.25 175.427C45.0121 174.965 44.0097 174.028 43.4653 172.824C42.9209 171.62 42.8794 170.248 43.35 169.013L48.0567 156.53C49.0891 154.064 51.8787 152.846 54.3889 153.766C56.8991 154.686 58.2418 157.417 57.4367 159.967L52.6667 172.523C51.6879 175.089 48.8233 176.385 46.25 175.427ZM61.8467 181.28C60.6086 180.818 59.6055 179.881 59.0589 178.678C58.5123 177.475 58.4671 176.103 58.9333 174.867C59.3267 173.83 64.9333 158.963 64.8133 159.31C65.854 156.835 68.6632 155.624 71.177 156.566C73.6909 157.508 75.0121 160.268 74.17 162.817L68.2933 178.377C67.306 180.95 64.4282 182.246 61.8467 181.28ZM77.4433 187.147C76.2053 186.684 75.2022 185.748 74.6556 184.545C74.109 183.341 74.0638 181.97 74.53 180.733L80.41 165.173C81.4461 162.69 84.2614 161.472 86.7805 162.417C89.2997 163.362 90.6193 166.131 89.7667 168.683C88.8867 171.017 83.5467 185.143 83.89 184.24C83.4207 185.48 82.4777 186.484 81.2687 187.029C80.0597 187.574 78.6837 187.616 77.4433 187.147ZM93.0367 193C91.7981 192.538 90.7946 191.602 90.2484 190.398C89.7022 189.195 89.6584 187.823 90.1267 186.587L93.6533 177.253C94.7188 174.816 97.5059 173.64 99.9954 174.576C102.485 175.513 103.805 178.235 103 180.77L99.4733 190.103C98.4919 192.677 95.6138 193.972 93.0367 193ZM148.247 144C147.033 146.441 144.099 147.475 141.623 146.333L132.623 142.033C130.993 141.379 129.135 142.103 128.376 143.687C127.617 145.272 128.218 147.173 129.75 148.033L138.75 152.323L138.777 152.347C141.186 153.577 142.18 156.5 141.02 158.944C139.86 161.388 136.966 162.466 134.49 161.377L124.823 156.747C123.19 156.076 121.317 156.796 120.553 158.388C119.789 159.98 120.399 161.891 121.943 162.747L131.61 167.377C134.004 168.616 134.985 171.529 133.828 173.963C132.671 176.398 129.792 177.477 127.32 176.403H127.27L118.143 172.02C116.506 171.331 114.617 172.047 113.847 173.647C113.077 175.248 113.697 177.171 115.257 178.02L124.423 182.42C126.903 183.632 127.944 186.615 126.757 189.107C126.193 190.291 125.181 191.203 123.944 191.641C122.707 192.079 121.347 192.006 120.163 191.44L108.287 185.667L109.247 183.123C110.727 179.273 110.045 174.926 107.457 171.715C104.869 168.503 100.767 166.912 96.69 167.54C96.9208 163.457 94.9856 159.555 91.596 157.267C88.2065 154.98 83.8631 154.645 80.1633 156.387C80.1633 156.347 80.14 156.303 80.1233 156.263C78.6589 153.02 75.7906 150.626 72.3381 149.765C68.8857 148.904 65.229 149.671 62.4133 151.847C59.2317 147.1 53.0843 145.35 47.88 147.71C46.6585 148.276 45.5443 149.05 44.5867 149.997H36.4067L46.1133 96.6034L86.4133 96.6667L70.5767 114.09C65.8288 119.318 66.0038 127.347 70.9751 132.363C75.9463 137.378 83.9738 137.625 89.2433 132.923L106.667 117.183L145.9 137.307C148.391 138.511 149.44 141.503 148.247 144ZM111.95 112.407L115.563 109.143C116.93 107.91 117.038 105.802 115.805 104.435C114.572 103.068 112.464 102.96 111.097 104.193L84.79 127.947C82.1666 130.296 78.1613 130.175 75.6848 127.671C73.2084 125.167 73.1315 121.161 75.51 118.563L99.44 92.23C100.741 90.8087 102.58 89.9995 104.507 90C138.173 89.9734 141.82 89.9534 153.887 89.9367L163.593 143.333H155.26C155.935 138.373 153.358 133.538 148.863 131.333L111.95 112.407ZM193.333 146.667C193.333 148.508 191.841 150 190 150H173.473C172.379 150.002 171.44 149.22 171.243 148.143L159.947 86C159.827 85.34 160.007 84.6609 160.436 84.146C160.866 83.6311 161.503 83.3335 162.173 83.3334H190C191.841 83.3334 193.333 84.8257 193.333 86.6667V146.667Z" fill="#171AA0"/>
</g>
<defs>
<clipPath id="clip0_277_6181">
<rect width="200" height="200" fill="white"/>
</clipPath>
</defs>
</svg>
